EEE 117/117 Lab/Data Lab 1.csv

#Digilent WaveForms Oscilloscope Acquisition
#Device Name: Discovery2
#Serial Number: SN:210321AF104F
#Date Time: 2020-09-14 13:32:03.453
#Sample rate: 1654.94Hz
#Samples: 8000
#Trigger: Source: Channel 1 Type: Edge Condition: Rising Level: 0 V Hyst.: Auto HoldOff: 0 s
#Channel 1: Range: 500 mV/div Offset: -1.5 V Attenuation: 1 X
#Channel 2: Range: 500 mV/div Offset: -1.5 V Attenuation: 1 X
#Wavegen Channel 1: Disabled
#Mode: Simple
#Type: Sine
#Frequency: 1 kHz
#Period: 1 ms
#Amplitude: 1 V
#Offset: 0 V
#Symmetry: 50 %
#Phase: 0 °
#Power Supplies: ON
#Positive Supply: ON
#Voltage: 2 V
#Negative Supply: ON
#Voltage: -1 V

Time (s),Channel 1 (V),Channel 2 (V)
-2.267146,1.997598574670392,0.002595949702807188
-2.26654175,1.997598574670392,0.001240929637816635
-2.2659375,1.997931015301136,0.002257194686559032
-2.26533325,1.997931015301136,0.0002246645890730911
-2.264729,1.997931015301136,-0.000791600459669306
-2.26412475,1.997931015301136,-0.001130355475917
-2.2635205,1.997931015301136,-0.003840395605898944
-2.26291625,1.997931015301136,-0.005195415670888881
-2.262312,1.997931015301136,-0.00621168071963174
-2.26170775,1.997931015301136,-0.0075667007846219
-2.2611035,1.997931015301136,-0.007566700784622515
-2.26049925,1.997931015301136,-0.008244210817117681
-2.259895,1.997931015301136,-0.007905455800870364
-2.25929075,1.997931015301136,-0.009937985898355928
-2.2586865,1.997931015301136,-0.008582965833365375
-2.25808225,1.997931015301136,-0.008244210817117835
-2.257478,2.000590540347086,-0.006550435735878664
-2.25687375,1.99826345593188,-0.004856660654641187
-2.2562695,1.997931015301136,-0.0041791506221458
-2.25566525,1.997931015301136,-0.003501640589649402
-2.255061,1.99826345593188,-0.000791600459669306
-2.25445675,1.997931015301136,0.000563419605321247
-2.2538525,1.997931015301136,0.002257194686559494
-2.25324825,1.997931015301136,0.002257194686559494
-2.252644,1.997931015301136,0.002934704719054881
-2.25203975,1.997931015301136,0.003950969767797278
-2.2514355,1.997931015301136,0.002934704719054881
-2.25083125,1.99826345593188,0.004967234816540822
-2.250227,1.997931015301136,0.003950969767798203
-2.24962275,1.997931015301136,0.003273459735302575
-2.2490185,1.997931015301136,0.000563419605321247
-2.24841425,1.997931015301136,0.0002246645890737073
-2.24781,1.997931015301136,-0.001130355475917308
-2.24720575,1.997931015301136,-0.001807865508412387
-2.2466015,1.997931015301136,-0.004856660654641187
-2.24599725,1.997931015301136,-0.005534170687137499
-2.245393,1.997931015301136,-0.007566700784622515
-2.24478875,1.997931015301136,-0.006550435735879434
-2.2441845,1.997931015301137,-0.00824421081711799
-2.24358025,1.999593218454855,-0.008921720849613068
-2.242976,1.998928337193367,-0.008244210817117681
-2.24237175,1.997931015301136,-0.009937985898355157
-2.2417675,1.997931015301136,-0.008582965833365375
-2.24116325,1.997931015301136,-0.007905455800870209
-2.240559,1.997931015301136,-0.005534170687137653
-2.23995475,1.997931015301136,-0.004517905638393493
-2.2393505,1.997598574670392,-0.003840395605898328
-2.23874625,1.997931015301136,-0.002824130557155709
-2.238142,1.997931015301136,0.000563419605321247
-2.23753775,1.997931015301136,0.000563419605321247
-2.2369335,1.997931015301136,0.002595949702807188
-2.23632925,1.997931015301136,0.002257194686560264
-2.235725,1.997931015301136,0.003950969767797741
-2.23512075,1.997931015301136,0.003273459735302575
-2.2345165,1.997931015301136,0.004289724784044972
-2.23391225,1.997931015301136,0.004967234816540822
-2.233308,1.997931015301136,0.003273459735302575
-2.23270375,1.997931015301136,0.002257194686559956
-2.2320995,1.997931015301136,0.000563419605321247
-2.23149525,1.997931015301136,-0.000791600459669306
-2.230891,1.997931015301136,-0.001469110492164385
-2.23028675,1.997598574670392,-0.002824130557156479
-2.2296825,1.997931015301136,-0.005534170687136575
-2.22907825,1.997931015301136,-0.005872925703384269
-2.228474,1.997598574670392,-0.007566700784622361
-2.22786975,1.997931015301136,-0.007227945768374822
-2.2272655,1.997931015301136,-0.008582965833365375
-2.22666125,1.997931015301136,-0.007905455800870979
-2.226057,1.997931015301136,-0.009599230882108456
-2.22545275,1.997931015301136,-0.009599230882108456
-2.2248485,1.99826345593188,-0.00756670078462344
-2.22424425,1.997931015301136,-0.006889190752127128
-2.22364,1.997931015301136,-0.005534170687136575
-2.22303575,1.997931015301136,-0.004179150622146416
-2.2224315,1.997931015301136,-0.003501640589650634
-2.22182725,1.997931015301136,-0.001130355475917
-2.221223,1.997931015301136,-0.0001140904271746026
-2.22061875,1.997931015301136,0.00157968465406479
-2.2200145,1.997931015301136,0.002595949702807188
-2.21941025,1.997931015301136,0.002257194686559494
-2.218806,1.997598574670392,0.003950969767797433
-2.21820175,1.997931015301136,0.003273459735302575
-2.2175975,1.997931015301136,0.004967234816540822
-2.21699325,1.997931015301136,0.003612214751550269
-2.216389,1.997931015301136,0.003612214751550269
-2.21578475,1.997931015301136,0.001579684654064328
-2.2151805,1.997931015301136,-0.0001140904271733703
-2.21457625,1.997931015301136,-0.000791600459669306
-2.213972,1.997931015301136,-0.001469110492164694
-2.21336775,1.997931015301136,-0.004517905638392107
-2.2127635,1.997931015301136,-0.005195415670888881
-2.21215925,1.997931015301136,-0.006889190752127128
-2.211555,1.997931015301136,-0.007227945768374667
-2.21095075,1.997931015301136,-0.007227945768375284
-2.2103465,1.997931015301136,-0.008244210817117681
-2.20974225,1.997931015301136,-0.007905455800870209
-2.209138,1.997931015301136,-0.009599230882107531
-2.20853375,1.997931015301136,-0.007566700784622515
-2.2079295,1.997931015301136,-0.007905455800870209
-2.20732525,1.997931015301136,-0.005872925703385193
-2.206721,1.997931015301136,-0.0041791506221458
-2.20611675,1.997931015301136,-0.003840395605898328
-2.2055125,1.997931015301136,-0.003162885573403248
-2.20490825,1.997931015301136,-0.0001140904271741405
-2.204304,1.997931015301136,0.000563419605321247
-2.20369975,1.997931015301136,0.002257194686558724
-2.2030955,1.997931015301136,0.001579684654065099
-2.20249125,1.99826345593188,0.003273459735302575
-2.201887,1.997931015301136,0.003273459735302575
-2.20128275,1.997931015301136,0.002934704719055652
-2.2006785,1.997931015301136,0.004628479800293128
-2.20007425,1.997931015301136,0.002934704719054881
-2.19947,1.997931015301136,0.00225719468655857
-2.19886575,1.997931015301136,0.0002246645890735532
-2.1982615,1.997931015301136,-0.001130355475917
-2.19765725,1.997931015301136,-0.00146911049216454
-2.197053,1.997931015301136,-0.002485375540907553
-2.19644875,1.997931015301136,-0.005534170687136575
-2.1958445,1.997931015301136,-0.005534170687136575
-2.19524025,1.997931015301136,-0.007566700784622515
-2.194636,1.997931015301136,-0.006550435735879434
-2.19403175,1.997931015301136,-0.008244210817116911
-2.1934275,1.997931015301136,-0.008244210817117681
-2.19282325,1.997931015301136,-0.008244210817117681
-2.192219,1.997931015301136,-0.009260475865860762
-2.19161475,1.997931015301136,-0.007905455800869748
-2.1910105,1.997931015301136,-0.006889190752127128
-2.19040625,1.99826345593188,-0.005195415670888881
-2.189802,1.997931015301136,-0.003840395605898328
-2.18919775,1.997931015301136,-0.003840395605898328
-2.1885935,1.997931015301136,-0.001807865508412387
-2.18798925,1.997931015301136,0.0005634196053201689
-2.187385,1.997931015301136,0.0009021746215689408
-2.18678075,1.997931015301136,0.002595949702807188
-2.1861765,1.997931015301136,0.002257194686559648
-2.18557225,1.997931015301136,0.003612214751550269
-2.184968,1.997931015301136,0.002257194686559494
-2.18436375,1.997931015301136,0.00428972478404451
-2.1837595,1.997931015301136,0.00395096976779697
-2.18315525,1.997931015301136,0.002257194686559494
-2.182551,1.997931015301136,0.001579684654064328
-2.18194675,1.997931015301136,-0.0001140904271747567
-2.1813425,1.997931015301136,-0.001469110492164694
-2.18073825,1.997931015301136,-0.001807865508412387
-2.180134,1.997931015301136,-0.004179150622144722
-2.17952975,1.997931015301136,-0.005195415670888881
-2.1789255,1.997931015301136,-0.006550435735879434
-2.17832125,1.997931015301136,-0.007227945768374514
-2.177717,1.997931015301136,-0.007227945768374822
-2.17711275,1.997931015301136,-0.008582965833365375
-2.1765085,1.997931015301136,-0.007566700784622978
-2.17590425,1.997931015301136,-0.00959923088210784
-2.1753,1.997931015301136,-0.008244210817117681
-2.17469575,1.997931015301136,-0.007566700784622515
-2.1740915,1.997931015301136,-0.005872925703383653
-2.17348725,1.997931015301136,-0.004517905638393493
-2.172883,1.997931015301136,-0.003501640589650634
-2.17227875,1.997931015301136,-0.003162885573401708
-2.1716745,1.997931015301136,-0.0004528454434216123
-2.17107025,1.997931015301136,-0.0001140904271741405
-2.170466,1.997931015301136,0.002595949702805955
-2.16986175,1.997931015301136,0.002257194686559494
-2.1692575,1.997931015301136,0.002595949702807188
-2.16865325,1.997931015301136,0.003273459735302267
-2.168049,1.997931015301136,0.002934704719054881
-2.16744475,1.997931015301136,0.004628479800293128
-2.1668405,1.997931015301136,0.002934704719055652
-2.16623625,1.997931015301136,0.002595949702806417
-2.165632,1.997931015301136,0.0009021746215689408
-2.16502775,1.997931015301136,-0.001130355475917
-2.1644235,1.997931015301136,-0.001130355475917308
-2.16381925,1.997931015301136,-0.001807865508412387
-2.163215,1.997931015301136,-0.005195415670888881
-2.16261075,1.997931015301136,-0.005195415670889959
-2.1620065,1.997931015301136,-0.007566700784622515
-2.16140225,1.997931015301136,-0.006889190752127128
-2.160798,1.997931015301136,-0.007566700784622207
-2.16019375,1.997931015301136,-0.008244210817117681
-2.1595895,1.997931015301136,-0.008244210817117681
-2.15898525,1.997931015301136,-0.009260475865860301
-2.158381,1.997931015301136,-0.007566700784622515
-2.15777675,1.997931015301136,-0.007227945768374822
-2.1571725,1.997931015301136,-0.005534170687137345
-2.15656825,1.997598574670392,-0.003840395605898174
-2.155964,1.997931015301136,-0.003501640589650634
-2.15535975,1.997931015301136,-0.002824130557155247
-2.1547555,1.997931015301136,0.0009021746215689408
-2.15415125,1.997931015301136,0.0009021746215689408
-2.153547,1.997931015301136,0.002595949702807188
-2.15294275,1.997931015301136,0.00157968465406479
-2.1523385,1.997931015301136,0.003612214751550269
-2.15173425,1.997931015301136,0.002934704719054881
-2.15113,1.997931015301136,0.003273459735302421
-2.15052575,1.997931015301136,0.004289724784045434
-2.1499215,1.997931015301136,0.002934704719054881
-2.14931725,1.997931015301136,0.001579684654064945
-2.148713,1.997931015301136,0.0002246645890729371
-2.14810875,1.997931015301136,-0.001130355475917
-2.1475045,1.997931015301136,-0.001469110492164694
-2.14690025,1.997931015301136,-0.003501640589651404
-2.146296,1.997931015301136,-0.005195415670888881
-2.14569175,1.997931015301136,-0.00621168071963174
-2.1450875,1.997931015301136,-0.007566700784622053
-2.14448325,1.997931015301136,-0.006550435735879434
-2.143879,1.997931015301136,-0.008244210817117681
-2.14327475,1.997931015301136,-0.007905455800870364
-2.1426705,1.997931015301136,-0.008921720849613068
-2.14206625,1.997931015301136,-0.008582965833365375
-2.141462,1.997931015301136,-0.007905455800870518
-2.14085775,1.997931015301136,-0.005872925703384269
-2.1402535,1.997931015301136,-0.004856660654641187
-2.13964925,1.997931015301136,-0.00384039560589879
-2.139045,1.997931015301136,-0.003501640589649248
-2.13844075,1.997931015301136,-0.0004528454434216123
-2.1378365,1.997931015301136,0.0002246645890735532
-2.13723225,1.997931015301136,0.00157968465406479
-2.136628,1.997931015301136,0.002595949702807188
-2.13602375,1.997931015301136,0.002257194686559494
-2.1354195,1.997931015301136,0.003273459735302267
-2.13481525,1.997931015301136,0.002595949702807188
-2.134211,1.99826345593188,0.004967234816540822
-2.13360675,1.997931015301136,0.003273459735303345
-2.1330025,1.997931015301136,0.002595949702807188
-2.13239825,1.997931015301136,0.001240929637816635
-2.131794,1.997931015301136,-0.000452845443420842
-2.13118975,1.997931015301136,-0.001469110492164694
-2.1305855,1.997931015301136,-0.001807865508412387
-2.12998125,1.997931015301136,-0.004517905638392261
-2.129377,1.997931015301136,-0.005534170687137191
-2.12877275,1.997931015301136,-0.006889190752127128
-2.1281685,1.997931015301136,-0.006889190752127128
-2.12756425,1.997931015301136,-0.00756670078462267
-2.12696,1.997931015301136,-0.007905455800870209
-2.12635575,1.997931015301136,-0.007905455800870209
-2.1257515,1.997931015301136,-0.009599230882107686
-2.12514725,1.997931015301136,-0.007905455800870209
-2.124543,1.997931015301136,-0.007227945768374822
-2.12393875,1.997931015301136,-0.005534170687137345
-2.1233345,1.997931015301136,-0.0041791506221458
-2.12273025,1.997931015301136,-0.003501640589650634
-2.122126,1.997931015301136,-0.002824130557155555
-2.12152175,1.997931015301136,0.000563419605321093
-2.1209175,1.997931015301136,0.0002246645890735532
-2.12031325,1.997931015301136,0.002595949702807188
-2.119709,1.997931015301136,0.001918439670312108
-2.11910475,1.997931015301136,0.002595949702807188
-2.1185005,1.997931015301136,0.003612214751550269
-2.11789625,1.997931015301136,0.003612214751550577
-2.117292,1.997931015301136,0.004289724784045434
-2.11668775,1.997931015301136,0.002934704719054881
-2.1160835,1.997931015301136,0.002257194686559802
-2.11547925,1.997931015301136,0.000563419605321247
-2.114875,1.997931015301136,-0.001130355475917
-2.11427075,1.997931015301136,-0.00146911049216454
-2.1136665,1.997931015301136,-0.002485375540907553
-2.11306225,1.997931015301136,-0.005872925703384269
-2.112458,1.997931015301136,-0.005534170687136729
-2.11185375,1.997931015301136,-0.007566700784622207
-2.1112495,1.997931015301136,-0.006889190752127128
-2.11064525,1.997931015301136,-0.007905455800870209
-2.110041,1.997931015301136,-0.007905455800870671
-2.10943675,1.997931015301136,-0.008921720849613068
-2.1088325,1.997931015301136,-0.008582965833365375
-2.10822825,1.997931015301136,-0.007905455800869593
-2.107624,1.997931015301136,-0.006550435735879434
-2.10701975,1.997931015301136,-0.005195415670888881
-2.1064155,1.997931015301136,-0.003501640589651404
-2.10581125,1.997931015301136,-0.00316288557340294
-2.105207,1.997931015301136,-0.001469110492164694
-2.10460275,1.997931015301136,0.0005634196053203228
-2.1039985,1.997931015301136,0.001240929637817097
-2.10339425,1.997931015301136,0.002257194686559494
-2.10279,1.997931015301136,0.002257194686559494
-2.10218575,1.997931015301136,0.003612214751549807
-2.1015815,1.997931015301136,0.002595949702807188
-2.10097725,1.997931015301136,0.003950969767797741
-2.100373,1.997931015301136,0.003950969767797278
-2.09976875,1.997931015301136,0.002934704719054881
-2.0991645,1.997931015301136,0.0009021746215689408
-2.09856025,1.997931015301136,-0.0001140904271736784
-2.097956,1.997931015301136,-0.001130355475917
-2.09735175,1.997931015301136,-0.001807865508412387
-2.0967475,1.997931015301136,-0.004179150622144722
-2.09614325,1.997931015301136,-0.005195415670888881
-2.095539,1.997931015301136,-0.006889190752127128
-2.09493475,1.997931015301136,-0.006889190752127128
-2.0943305,1.997931015301136,-0.007227945768375284
-2.09372625,1.997931015301136,-0.008244210817117681
-2.093122,1.997931015301136,-0.007566700784622515
-2.09251775,1.997931015301136,-0.009260475865860146
-2.0919135,1.997931015301136,-0.007905455800870209
-2.09130925,1.997931015301136,-0.007566700784622515
-2.090705,1.997931015301136,-0.005195415670888419
-2.09010075,1.997931015301136,-0.0041791506221458
-2.0894965,1.997931015301136,-0.003501640589650634
-2.08889225,1.997931015301136,-0.002824130557155555
-2.088288,1.997931015301136,-0.0001140904271741405
-2.08768375,1.997931015301136,0.000563419605321247
-2.0870795,1.997931015301136,0.001918439670311184
-2.08647525,1.997931015301136,0.002257194686559494
-2.085871,1.997931015301136,0.002934704719054881
-2.08526675,1.997931015301136,0.003273459735302421
-2.0846625,1.997931015301136,0.002934704719055652
-2.08405825,1.997931015301136,0.004628479800293128
-2.083454,1.997931015301136,0.002934704719054881
-2.08284975,1.997931015301136,0.002595949702806263
-2.0822455,1.997931015301136,0.000563419605321247
-2.08164125,1.997931015301136,-0.000791600459669306
-2.081037,1.997931015301136,-0.001807865508412387
-2.08043275,1.997931015301136,-0.001807865508412387
-2.0798285,1.997931015301136,-0.005534170687136575
-2.07922425,1.997931015301136,-0.005534170687136575
-2.07862,1.997931015301136,-0.007227945768374822
-2.07801575,1.997931015301136,-0.006889190752127128
-2.0774115,1.997931015301136,-0.008244210817117065
-2.07680725,1.997931015301136,-0.007566700784622823
-2.076203,1.997931015301136,-0.008244210817117681
-2.07559875,1.997931015301136,-0.009260475865860301
-2.0749945,1.997931015301136,-0.007566700784622207
-2.07439025,1.997931015301136,-0.006889190752127128
-2.073786,1.997931015301136,-0.005534170687136575
-2.07318175,1.997931015301136,-0.004179150622145337
-2.0725775,1.997931015301136,-0.00316288557340294
-2.07197325,1.997931015301136,-0.002146620524660081
-2.071369,1.997931015301136,0.0005634196053200145
-2.07076475,1.997931015301136,0.001240929637816635
-2.0701605,1.997931015301136,0.002934704719054881
-2.06955625,1.997931015301136,0.001918439670312262
-2.068952,1.997931015301136,0.003273459735302575
-2.06834775,1.997931015301136,0.002934704719054881
-2.0677435,1.997931015301136,0.003950969767797278
-2.06713925,1.997931015301136,0.003950969767797278
-2.066535,1.997931015301136,0.002934704719054881
-2.06593075,1.997931015301136,0.0019184396703118
-2.0653265,1.997931015301136,0.0002246645890729371
-2.06472225,1.997931015301136,-0.001130355475917
-2.064118,1.997931015301136,-0.001469110492164694
-2.06351375,1.997931015301136,-0.00384039560589879
-2.0629095,1.997931015301136,-0.004856660654641187
-2.06230525,1.997931015301136,-0.00621168071963174
-2.061701,1.997931015301136,-0.0075667007846219
-2.06109675,1.997931015301136,-0.007227945768374822
-2.0604925,1.997931015301136,-0.008244210817117681
-2.05988825,1.997931015301136,-0.007566700784622823
-2.059284,1.997931015301136,-0.009599230882108456
-2.05867975,1.997931015301136,-0.007905455800870209
-2.0580755,1.997931015301136,-0.007905455800870209
-2.05747125,1.997931015301136,-0.00621168071963097
-2.056867,1.997931015301136,-0.004517905638393493
-2.05626275,1.997931015301136,-0.003840395605898328
-2.0556585,1.997931015301136,-0.003162885573401862
-2.05505425,1.997931015301136,-0.000791600459669306
-2.05445,1.997931015301136,0.000563419605321247
-2.05384575,1.997931015301136,0.0019184396703118
-2.0532415,1.99826345593188,0.0019184396703118
-2.05263725,1.997931015301136,0.002595949702807188
-2.052033,1.997931015301136,0.003612214751549807
-2.05142875,1.997931015301136,0.002595949702807188
-2.0508245,1.997931015301136,0.004628479800293128
-2.05022025,1.997931015301136,0.003273459735303191
-2.049616,1.997931015301136,0.002595949702806263
-2.04901175,1.997931015301136,0.000563419605321247
-2.0484075,1.997931015301136,-0.0001140904271741405
-2.04780325,1.997931015301136,-0.001130355475917462
-2.047199,1.997931015301136,-0.002146620524660081
-2.04659475,1.997931015301136,-0.004856660654641187
-2.0459905,1.997931015301136,-0.005534170687137345
-2.04538625,1.997931015301136,-0.007227945768374822
-2.044782,1.997931015301136,-0.006550435735879434
-2.04417775,1.997931015301136,-0.007905455800869593
-2.0435735,1.997931015301136,-0.008244210817117681
-2.04296925,1.997931015301136,-0.007905455800870209
-2.042365,1.997931015301136,-0.009260475865860146
-2.04176075,1.997931015301136,-0.007905455800870209
-2.0411565,1.997931015301136,-0.007566700784622515
-2.04055225,1.997598574670392,-0.005195415670889959
-2.039948,1.997931015301136,-0.004179150622145645
-2.03934375,1.997931015301136,-0.003840395605898328
-2.0387395,1.997931015301136,-0.002485375540907553
-2.03813525,1.997931015301136,0.0009021746215687867
-2.037531,1.997931015301136,0.000563419605321247
